%YAML 1.1
%TAG !u! tag:unity3d.com,2011:
--- !u!114 &11400000
MonoBehaviour:
  m_ObjectHideFlags: 0
  m_CorrespondingSourceObject: {fileID: 0}
  m_PrefabInstance: {fileID: 0}
  m_PrefabAsset: {fileID: 0}
  m_GameObject: {fileID: 0}
  m_Enabled: 1
  m_EditorHideFlags: 0
  m_Script: {fileID: 11500000, guid: ea8f0340f12fece48a7a8ef1a6ab239d, type: 3}
  m_Name: MatchScoreDesign
  m_EditorClassIdentifier: 
  MaxMatch: 10
  List:
  - MathchBlock: 3
    Point: 3
  - MathchBlock: 4
    Point: 5
  - MathchBlock: 5
    Point: 8
  - MathchBlock: 6
    Point: 11
  - MathchBlock: 7
    Point: 15
  - MathchBlock: 8
    Point: 19
  - MathchBlock: 9
    Point: 24
  - MathchBlock: 10
    Point: 29
