%YAML 1.1
%TAG !u! tag:unity3d.com,2011:
--- !u!114 &11400000
MonoBehaviour:
  m_ObjectHideFlags: 0
  m_CorrespondingSourceObject: {fileID: 0}
  m_PrefabInstance: {fileID: 0}
  m_PrefabAsset: {fileID: 0}
  m_GameObject: {fileID: 0}
  m_Enabled: 1
  m_EditorHideFlags: 0
  m_Script: {fileID: 11500000, guid: 676e54aa7e3d4f346842b9a226d3afba, type: 3}
  m_Name: ColorDefind
  m_EditorClassIdentifier: 
  ListColor:
  - TypeBlock: 0
    Color: {r: 0.06808472, g: 0.8893823, b: 0.9622642, a: 1}
  - TypeBlock: 1
    Color: {r: 0.9716981, g: 0.70092326, b: 0.03208439, a: 1}
  - TypeBlock: 2
    Color: {r: 0.9716981, g: 0.01375042, b: 0.72193354, a: 1}
  - TypeBlock: 3
    Color: {r: 0.9811321, g: 0.3099319, b: 0.06016379, a: 1}
  - TypeBlock: 4
    Color: {r: 0.7097273, g: 0.04004982, b: 0.9433962, a: 1}
  - TypeBlock: 5
    Color: {r: 0.05842829, g: 0.9528302, b: 0.19904009, a: 1}
  - TypeBlock: 6
    Color: {r: 0.050418302, g: 0.14329761, b: 0.9716981, a: 1}
  - TypeBlock: 7
    Color: {r: 0.990566, g: 0.042052314, b: 0.042052314, a: 1}
