%YAML 1.1
%TAG !u! tag:unity3d.com,2011:
--- !u!114 &11400000
MonoBehaviour:
  m_ObjectHideFlags: 0
  m_CorrespondingSourceObject: {fileID: 0}
  m_PrefabInstance: {fileID: 0}
  m_PrefabAsset: {fileID: 0}
  m_GameObject: {fileID: 0}
  m_Enabled: 1
  m_EditorHideFlags: 0
  m_Script: {fileID: 11500000, guid: a3b7742ac0d791244b2410cfcebb1f6b, type: 3}
  m_Name: E3
  m_EditorClassIdentifier: 
  Matchs: 100
  PointTarget: 500
  Shape1: 10
  Shape2: 30
  Shape3: 60
  Shape4: 40
  DuplicateShape: 2
  DuplicateItem: 2
  Max: 1
  Duplicate: 0
  Type1: 0
  Type2: 0
  Type3: 0
