%YAML 1.1
%TAG !u! tag:unity3d.com,2011:
--- !u!114 &11400000
MonoBehaviour:
  m_ObjectHideFlags: 0
  m_CorrespondingSourceObject: {fileID: 0}
  m_PrefabInstance: {fileID: 0}
  m_PrefabAsset: {fileID: 0}
  m_GameObject: {fileID: 0}
  m_Enabled: 1
  m_EditorHideFlags: 0
  m_Script: {fileID: 11500000, guid: a3b7742ac0d791244b2410cfcebb1f6b, type: 3}
  m_Name: E5
  m_EditorClassIdentifier: 
  Matchs: -1
  PointTarget: 1500
  Shape1: 5
  Shape2: 20
  Shape3: 55
  Shape4: 100
  DuplicateShape: 2
  DuplicateItem: 2
  Max: 1
  Duplicate: 1
  Type1: 5
  Type2: 0
  Type3: 0
